// Jest Snapshot v1, https://goo.gl/fbAQLP

exports[`renders correctly 1`] = `
<div>
  <div
    class="button-box"
  >
    <button
      class="btn"
    >
      Click me
    </button>
  </div>
</div>
`;

exports[`snapshots the button 1`] = `
<DocumentFragment>
  <div
    class="button-box"
  >
    <button
      class="btn"
    />
  </div>
</DocumentFragment>
`;
