[
    {
      "id": 1,
      "name": "Dress",
      "price": "500",
      "imagePath": "https://images.prom.ua/4356942701_zhenskoe-odnotonnoe-korotkoe.jpg",
      "article": "123456",
      "color": "Black"
    },
    {
      "id": 2,
      "name": "T-Shirt",
      "price": "200",
      "imagePath": "https://content1.rozetka.com.ua/goods/images/big/312525132.jpg",
      "article": "789012",
      "color": "White"
    },
    {
      "id": 3,
      "name": "Shorts",
      "price": "300",
      "imagePath": "https://content1.rozetka.com.ua/goods/images/big/167433938.jpg",
      "article": "345678",
      "color": "Black"
    },
    {
      "id": 4,
      "name": "Sweater",
      "price": "400",
      "imagePath": "https://content1.rozetka.com.ua/goods/images/big/216751853.jpg",
      "article": "901234",
      "color": "Grey"
    },
    {
      "id": 5,
      "name": "Hat",
      "price": "100",
      "imagePath": "https://content.rozetka.com.ua/goods/images/big/234965207.jpg",
      "article": "567890",
      "color": "Red"
    },
    {
      "id": 6,
      "name": "Skirt",
      "price": "250",
      "imagePath": "https://content.rozetka.com.ua/goods/images/big/333843616.jpg",
      "article": "234567",
      "color": "Blue"
    },
    {
      "id": 7,
      "name": "Shirt",
      "price": "350",
      "imagePath": "https://content2.rozetka.com.ua/goods/images/big_tile/218064185.jpg",
      "article": "890123",
      "color": "White"
    },
    {
      "id": 8,
      "name": "Pants",
      "price": "450",
      "imagePath": "https://content1.rozetka.com.ua/goods/images/big_tile/314144203.jpg",
      "article": "456789",
      "color": "Grey"
    },
    {
      "id": 9,
      "name": "Sneakers",
      "price": "150",
      "imagePath": "https://content1.rozetka.com.ua/goods/images/big/328470867.jpg",
      "article": "012345",
      "color": "White"
    },
    {
      "id": 10,
      "name": "Bag",
      "price": "200",
      "imagePath": "https://content.rozetka.com.ua/goods/images/big/330462330.jpg",
      "article": "678901",
      "color": "Black"
    }
  ]