[
    {
      "id": 1,
      "name": "4K TV Game Mini Arcade Rocker Console 32GB/64GB",
      "price": "$29.80",
      "imagePath": "./img/image-1.png",
      "article": "123456",
      "color": "White"
    },
    {
      "id": 2,
      "name": "Cancelling Headset Music Sport Deep Bass",
      "price": "$39.80",
      "imagePath": "./img/image-2.png",
      "article": "789012",
      "color": "Black"
    },
    {
      "id": 3,
      "name": "T500BT Original Wireless Bluetooth Headphone",
      "price": "$69.80",
      "imagePath": "./img/image-3.png",
      "article": "345678",
      "color": "Pink"
    },
    {
      "id": 4,
      "name": "Black Walnut Wood & Aluminum Headphone Stand",
      "price": "$70.80",
      "imagePath": "./img/image-4.png",
      "article": "901234",
      "color": "Black"
    },
    {
      "id": 5,
      "name": "Beats Studio3 Wireless Bluetooth Headphones",
      "price": "$29.80",
      "imagePath": "./img/image-5.png",
      "article": "567890",
      "color": "White"
    },
    {
      "id": 6,
      "name": "Marshall MAJOR III Wireless Folding Bluetooth",
      "price": "$39.80",
      "imagePath": "./img/image-6.png",
      "article": "234567",
      "color": "Grey"
    },
    {
      "id": 7,
      "name": "T500BT Original Wireless Bluetooth Headphone",
      "price": "$69.80",
      "imagePath": "./img/image-7.png",
      "article": "890123",
      "color": "Grey"
    },
    {
      "id": 8,
      "name": "Black Walnut Wood & Aluminum Headphone Stand",
      "price": "$70.80",
      "imagePath": "./img/image-8.png",
      "article": "456789",
      "color": "Black/Blue"
    },
    {
      "id": 9,
      "name": "Beats Studio3 Wireless Bluetooth Headphones",
      "price": "$29.80",
      "imagePath": "./img/image-9.png",
      "article": "012345",
      "color": "Grey"
    },
    {
      "id": 10,
      "name": "Marshall MAJOR III Wireless Folding Bluetooth",
      "price": "$39.80",
      "imagePath": "./img/image-10.png",
      "article": "678901",
      "color": "Black"
    },
    {
      "id": 11,
      "name": "T500BT Original Wireless Bluetooth Headphone",
      "price": "$69.80",
      "imagePath": "./img/image-11.png",
      "article": "678901",
      "color": "Grey"
    },
    {
      "id": 12,
      "name": "Black Walnut Wood & Aluminum Headphone Stand",
      "price": "$70.80",
      "imagePath": "./img/image-12.png",
      "article": "678901",
      "color": "Black"
    }
  ]